{
    "google": {
        "displayname": "Google",
        "url": "type=xyz&zmin={minzoom}&zmax=20&url=https://mt1.google.com/vt/lyrs%3Ds%26x%3D{x}%26y%3D{y}%26z%3D{z}",
        "provider": "wms",
        "minzoom": 0
    },
    "bing": {
        "displayname": "Bing",
        "url": "type=xyz&zmin={minzoom}&zmax=18&url=http://ecn.t3.tiles.virtualearth.net/tiles/a{q}.jpeg?g%3D0%26dir%3Ddir_n",
        "provider": "wms",
        "minzoom": 1
    },
    "arcgis": {
        "displayname": "ESRI ArcGis",
        "url": "type=xyz&zmin={minzoom}&zmax=20&url=https://server.arcgisonline.com/ArcGIS/rest/services/World_Imagery/MapServer/tile/{z}/{y}/{x}",
        "provider": "wms",
        "minzoom": 0
    }
}