{
  "classes": {
    "road": {
      "color": "#c172aa",
      "name": "Road"
    },
    "concrete": {
      "color": "#f92cd4",
      "name": "Concrete"
    },
    "water": {
      "color": "#5b89df",
      "name": "Water"
    },
    "grass": {
      "color": "#509437",
      "name": "Grass"
    },
    "field": {
      "color": "#80c52e",
      "name": "Field"
    },
    "forest": {
      "color": "#005e1a",
      "name": "Forest"
    },
    "dirt": {
      "color": "#7e3e06",
      "name": "Dirt"
    },
    "sand": {
      "color": "#cbbe00",
      "name": "Sand"
    }
  }
}